Genetic colocalisation • gwasglue
…
suppressPackageStartupMessages(suppressWarnings({
    library(gwasglue)
    library(dplyr)
    library(gassocplot)
    library(coloc)
}))

ieugwasr

First find a region that we know to be associated with LDL cholesterol.

top <- ieugwasr::tophits('ieu-a-300') %>% arrange(p)
#> API: public: https://gwas-api.mrcieu.ac.uk/
top
#> # A tibble: 81 x 12
#>    position         p chr      beta      n     se id    rsid  ea    nea  
#>       <int>     <dbl> <chr>   <dbl>  <int>  <dbl> <chr> <chr> <chr> <chr>
#>  1   1.10e8 1.00e-200 1     -0.150  172825 0.0047 ieu-… rs49… T     C    
#>  2   4.54e7 1.00e-200 19    -0.485  139198 0.0119 ieu-… rs72… A     G    
#>  3   1.12e7 1.00e-200 19    -0.221  170608 0.0061 ieu-… rs65… T     G    
#>  4   2.13e7 9.48e-183 2      0.119  173007 0.004  ieu-… rs13… A     G    
#>  5   5.55e7 8.57e-143 1      0.497   77417 0.018  ieu-… rs11… A     G    
#>  6   4.54e7 2.99e-122 19    -0.446   99409 0.0183 ieu-… rs12… A     G    
#>  7   4.41e7 4.84e- 83 2     -0.0806 172940 0.0041 ieu-… rs65… C     T    
#>  8   7.47e7 7.79e- 78 5      0.0733 168357 0.0038 ieu-… rs12… C     T    
#>  9   4.52e7 7.29e- 62 19    -0.189  170260 0.0112 ieu-… rs29… C     T    
#> 10   1.26e8 2.10e- 50 8     -0.0564 172963 0.0036 ieu-… rs29… T     A    
#> # … with 71 more rows, and 2 more variables: eaf <chr>, trait <chr>
…
